…
Normalmente el equipo de data utiliza el paquete *sensataDataProg* para
dejar los datos como los queremos, una fila por individuo y cada columna
es una pregunta:

``` r
sensataExAnalysis
```

    ## # A tibble: 2,831 × 86
    ##    id    geolocation.coo… q_EA_IS_00 q_EA_CA_01 q_EA_CA_04 q_EA_CA_21 q_EA_CA_05
    ##    <chr> <chr>            <fct>      <chr>      <fct>      <fct>      <fct>     
    ##  1 6101… [-73.9477268999… <NA>       Colombia   1-2 times… 2-3 times… 1-2 times…
    ##  2 6101… [-74.7922088999… <NA>       Colombia   Never      2-3 times… 1-2 times…
    ##  3 6101… [-74.1212159999… <NA>       Colombia   1-2 times… Every day  Never     
    ##  4 6101… [-76.5372512,3.… <NA>       Colombia   Never      2-3 times… Never     
    ##  5 6101… [-75.5393042,6.… <NA>       Colombia   Never      Every day  Never     
    ##  6 6101… [-74.1015551999… <NA>       Colombia   2-3 times… Every day  Every day 
    ##  7 6101… [-74.5354914,4.… <NA>       Colombia   Never      Every day  Never     
    ##  8 6101… [-76.4678653,3.… <NA>       Colombia   Never      2-3 times… Never     
    ##  9 6101… [-75.5826688,6.… <NA>       Colombia   1-2 times… Every day  Never     
    ## 10 6101… [-74.0589567999… <NA>       Colombia   1-2 times… 2-3 times… Never     
    ## # … with 2,821 more rows, and 79 more variables: q_EA_CA_22 <fct>,
    ## #   q_EA_CA_06 <fct>, q_EA_MO_02 <fct>, q_EA_CU_01 <fct>, q_EA_CU_02 <fct>,
    ## #   q_EA_JS_01 <fct>, q_EA_IN_01 <fct>, q_EA_CU_04 <fct>, q_EA_CU_05 <fct>,
    ## #   q_EA_CU_06 <ord>, q_EA_IN_02 <ord>, q_EA_IN_08 <ord>, q_EA_IN_03 <ord>,
    ## #   q_EA_IN_04 <ord>, q_EA_JS_02 <ord>, q_EA_IN_05 <ord>, q_EA_JS_03 <ord>,
    ## #   q_EA_IN_07 <fct>, q_EA_MO_07 <fct>, q_EA_MO_08 <fct>, q_EA_MO_09 <fct>,
    ## #   q_EA_IN_06 <fct>, q_EA_JS_04 <fct>, q_EA_JS_05 <fct>, q_EA_JS_06 <fct>, …
…
