…
Normalmente el equipo de data utiliza el paquete *sensataDataProg* para
dejar los datos como los queremos, una fila por individuo y cada columna
es una pregunta:

``` r
sensataExAnalysis
```

    ## # A tibble: 2,831 × 86
    ##    id    geolo…¹ q_EA_…² q_EA_…³ q_EA_…⁴ q_EA_…⁵ q_EA_…⁶ q_EA_…⁷ q_EA_…⁸ q_EA_…⁹
    ##    <chr> <chr>   <fct>   <chr>   <fct>   <fct>   <fct>   <fct>   <fct>   <fct>  
    ##  1 6101… [-73.9… <NA>    Colomb… 1-2 ti… 2-3 ti… 1-2 ti… 1-2 ti… Never   Both o…
    ##  2 6101… [-74.7… <NA>    Colomb… Never   2-3 ti… 1-2 ti… Never   Never   Both o…
    ##  3 6101… [-74.1… <NA>    Colomb… 1-2 ti… Every … Never   Never   Never   Both o…
    ##  4 6101… [-76.5… <NA>    Colomb… Never   2-3 ti… Never   Never   Never   Both o…
    ##  5 6101… [-75.5… <NA>    Colomb… Never   Every … Never   Never   Never   Both o…
    ##  6 6101… [-74.1… <NA>    Colomb… 2-3 ti… Every … Every … 1-2 ti… 1-2 ti… Both o…
    ##  7 6101… [-74.5… <NA>    Colomb… Never   Every … Never   1-2 ti… Never   Both o…
    ##  8 6101… [-76.4… <NA>    Colomb… Never   2-3 ti… Never   1-2 ti… Never   Both o…
    ##  9 6101… [-75.5… <NA>    Colomb… 1-2 ti… Every … Never   Never   1-2 ti… Sugar …
    ## 10 6101… [-74.0… <NA>    Colomb… 1-2 ti… 2-3 ti… Never   Never   Never   Both o…
    ## # … with 2,821 more rows, 76 more variables: q_EA_CU_01 <fct>,
    ## #   q_EA_CU_02 <fct>, q_EA_JS_01 <fct>, q_EA_IN_01 <fct>, q_EA_CU_04 <fct>,
    ## #   q_EA_CU_05 <fct>, q_EA_CU_06 <ord>, q_EA_IN_02 <ord>, q_EA_IN_08 <ord>,
    ## #   q_EA_IN_03 <ord>, q_EA_IN_04 <ord>, q_EA_JS_02 <ord>, q_EA_IN_05 <ord>,
    ## #   q_EA_JS_03 <ord>, q_EA_IN_07 <fct>, q_EA_MO_07 <fct>, q_EA_MO_08 <fct>,
    ## #   q_EA_MO_09 <fct>, q_EA_IN_06 <fct>, q_EA_JS_04 <fct>, q_EA_JS_05 <fct>,
    ## #   q_EA_JS_06 <fct>, q_EA_MO_11 <ord>, q_EA_CU_07 <ord>, q_EA_IS_01 <fct>, …
    ## # ℹ Use `print(n = ...)` to see more rows, and `colnames()` to see all variable names
…
